{
  "similarity" : "LMJelinekMercerSimilarityFactory",
  "topic401" : {
    "query" : "foreign minorities, Germany",
    "response":{"numFound":87456,"start":0,"docs":[
      {
        "header":["\n\nDocument Type:Daily Report \n\n\n"],
        "id":" FBIS3-18916 ",
        "text":["\nLanguage: \nArticle Type:BFN \n\n  [Text] Bonn (DPA) -- On Wednesday [9 March], FRG Foreign \nMinister Klaus Kinkel opened a meeting with the foreign \nministers of the three Baltic states Estonia, Latvia, and \nLithuania in Bonn with the urgent recommendation that they \nintegrate their Russian minorities. This recommendation was \nprimarily addressed to Estonia and Latvia, since this problem \nwith minorities does not exist in Lithuania. Solving the \nproblem is of \"outstanding importance for the future of the \nrelations with Russia as a whole,\" Kinkel said. \n  Kinkel assured all three republics of German support for the \ngradual approach to the European Union and the Western European \nUnion with the final goal of full membership. Closer \ncooperation is also to be striven for with NATO. Promoting a \nbetter relationship between the Baltic States and Russia was the \ncentral topic of the meeting, with which the foreign ministers \nof the Baltic Sea republics met with Kinkel in Germany for the \nfirst time. \n  Kinkel stressed the \"particularly close relationship\" both \nwith the Baltic States and with Russia. At the beginning of the \nmeeting, he stressed that the date of 31 August 1994 for the \nwithdrawal of the Russian troops from Estonia and Latvia must be \nobserved and that there are no reasons for delay. Estonia was \nrepresented by Juri Luik, Latvia by Georgs Andrejevs, and \nLithuania by Povilas Gylys. \n\n"],
        "_version_":1552800653757120513},
      {
        "header":["\n\nDaily Report \n\n\n"],
        "id":" FBIS4-15890 ",
        "text":["\nBFN \n\n\nKazakhstan\"] \n  [Text] Berlin -- According to official figures, there are \n700,000 Germans living in Kazakhstan. Many have already left -- \n300,000 people did so in 1993 alone. Even more are planning to \nleave. \n  One-half of the 17-million population of the [world's] ninth \nlargest state are members of ethnic minorities, and ethnic \ntension is on the rise. \n  There are varying reasons for potential conflict. Konstantin \nErlikh, chairman of the Republic's \"German Rebirth\" Society, \nexplains why people want to leave Kazakhstan. It is not only a \ncase of economic necessity, but also of the \"Kazakhization of \nthe country,\" which does not promise ethnic minorities a \npolitical future. This is also compounded by the problem of \ncitizenship. \n  In a country rich in fuel resources people are freezing and \nsuffering for want of food. Anyone who is able to leave is \ndoing so, heading for Germany in particular. The number of \nmixed-marriage families among the emigres has risen appreciably \nas Germans persuade their partners of a different nationality to \ntry for happiness in the West. \n  With the adoption of the Constitution on 28 January 1992, \nKazakh was officially declared the state language. Anyone who \nwants to remain in state service has to speak Kazakh and such \npeople are very few and far between among the local Germans and \nRussians. The result is that the number of representatives of \nthe ethnic minorities in leadership structures and the \nministerial apparatus has dropped noticeably in a short period, \nrepresentatives of \"German Rebirth\" say. According to them, \nanyone who does not have influential members of their ethnic \nminorities in very important positions will find it incredibly \ndifficult to combat all-powerful officials in the corrupt morass \nin which God forbid you utter a \"foreign\" word. \n  By the end of 1995 every non-Kazakh will have to say whether \nhe wants to become a Kazakhstani citizen or not. Anyone who \ndecides to obtain a Kazakhstani passport must bear in mind that \nit will be even harder to leave the country then. Anyone who \ntakes the reverse decision will find themselves without \ncitizenship in Kazakhstan after 1995. \n  In line with legislation, Germany allows a maximum of \n230,000 \nemigres from the former Soviet Union to enter its country each \nyear. At the same time the federal government is trying to \ncontain [soderzhat] immigration by providing Kazakhstan with \neconomic aid. Since 1990, around 80 million German marks have \nvanished into Kazakhstan. \n  The ethnic minorities' only hope is President Nursultan \nNazarbayev, who has officially assured them: \"We do not want to \ndivide our people into them and us.\" Kazakhstan will hardly be \nable to manage without Russian Germans or Russians, otherwise \nits development will come to a standstill. The departure of \n45,000 Russians in 1992 was a serious blow to Kazakhstan, \nparticularly if you consider the fact that the bulk of the \nRussians were members of the intelligentsia. The Russian \nGermans are also very essential. They are diligent artisans and \npeasants. \n  However, aid is going no further than official declarations \nsince in reality there are hardly any traces of it to be found. \nWhy for instance is there still no Goethe Institute in Alma-Ata \n[Almaty] although the money has long since been provided? And \nwhy, lastly, are representatives of the ethnic minorities \ndisappearing from important state positions if they are \nnonetheless essential, Germans wonder as they pack their bags? \n\n"],
        "_version_":1552800617862266881},
      {
        "header":["\n\nDaily Report \n\n\n"],
        "id":" FBIS4-42162 ",
        "text":["\nBFN \n\n\nOpened\"] \n  [Text] Paris, 26 May (BELGA) -- According to [Belgian \nForeign Minister] Claes, \"the Balladur Pact meets the \nrequirements first because it is preventative, and second \nbecause the European Union (EU) cannot be enlarged without \nsatisfactory guarantees regarding stability.\" That was how the \nminister explained his viewpoint to the Belgian press. \n  However, Claes questioned the future of this introductory \nconference. \n  Thus, the 39 foreign ministers will undoubtedly reach an \nagreement by Friday [27 May] on a (probably rather noncommittal) \ndeclaration with a view to initiating consultations regarding \nminorities and borders in Central and East Europe and the Baltic \ncountries. \"However, supplements on working methods are still \nopen to ratification.\" \n  Consequently, the approach initially aimed at, namely \nbilateral talks, has been dropped, meaning that the planning \npartially escapes the inspection of those taking the initiative. \n  Moreover, according to Claes, \"there are still problems with \nthe two round tables. Russia has still not promised that it \nwill take part in the round tables on the Baltics. Russia feels \nthat the Balladur Pact somewhat thwarts the CSCE activities and \nwants to give Max van der Stoel, the CSCE special envoy for \nhuman rights, free rein. On this, Moscow could be swayed by the \nUnited States with the argument that international politics is \nalready developed enough. As for the other roundtable, there is \nstill disagreement between Hungary and Romania on whether or not \nto allow the Hungarian minorities to take part in the talks.\" \n  \"The most important thing is yet to come,\" Claes said. The \nupcoming EU presidents, France and Germany, namely, will have to \nwork very hard at this. \n\n"],
        "_version_":1552800574838145026},
      {
        "header":["\n\nDaily Report \n\n\n"],
        "id":" FBIS4-32230 ",
        "text":["\nBFN \n\n  [Text] Belgrade, 18 Jun (TANJUG) -- \"The report that the \nAlbanian authorities have tried forcibly to resettle members of \nthe Serb and Montenegrin minorities, residents of Vraka and \nPodgoricani, from the villages of Stari Boric and Mladi Boric, \nin which they have always lived, has caused great concern among \nthe Yugoslav public. According to available information, the \nAlbanian authorities tried to confiscate by force their houses \nand land, and move them to different locations,\" reads a \nstatement by the Federal Foreign Ministry, which was forwarded \nto TANJUG today. \n  ``What is particularly worrying is that the Albanian police \nused force and wounded several people, including women and \nchildren. All this has caused serious concern among members of \nthe Serb and Montenegrin minorities and the Gorans [Slav ethnic \nminority], because this is yet further confirmation of the \nincreasing pressure and the unwillingness on the part of the \nAlbanian authorities to grant and respect the national \nminorities' inalienable right to their territory. \n  ``The Federal Foreign Ministry notes with concern the fact \nthat Albania is forcibly resettling members of the Serb and \nMontenegrin minorities under the pretext of a new administrative \ndivision of state territory, and is planning to settle Albanians \nfrom the areas of Dukadjin and Malesija to farms belonging to \nthe Serbs, Montenegrins and Gorans. This is a calculated policy \naimed at breaking up the territorial integrity of the ethnic \nSerbs, Montenegrins and Gorans in Albania, especially in the \nterritory near the Yugoslav-Albanian border, and exerting \nincreased physical and psychological pressure in order to speed \nup their systematic assimilation. \n  ``By such action the Albanian authorities are violating \nbasic \nhuman and civil rights, the right to physical integrity, the \nfreedom to choose the place of abode and the inviolability of \nprivate property, which is in contravention of its obligations \nassumed as a member of the United Nations and the CSCE. \n  ``The Federal Foreign Ministry calls on the Albanian \nauthorities to stop exerting pressure on members of the Serb and \nMontenegrin national minorities and the Gorans, and to abandon \nits plan forcibly to resettle the residents of Vraka and \nPodgoricani. The Federal Foreign Ministry expects Albania to \nrespect all rights of members of the Serb and Montenegrin \nminorities in line with relevant CSCE documents,'' the statement \nsays in conclusion. \n\n"],
        "_version_":1552800601519161344},
      {
        "header":["\n\nDocument Type:Daily Report \n\n\n"],
        "id":" FBIS3-31802 ",
        "text":["\nLanguage: \nArticle Type:BFN \n\n  [Text] Minister of Foreign Affairs Geza Jeszenszky has \nreported to the Human Rights Committee of the National Assembly \non the situation of Hungarians living beyond the border and on \nthe Hungarian Government policy regarding the minorities. \nKaroly Levai reports. \n  [Levai] It is not true that the stance of the Hungarian \nGovernment has become more radical regarding the issue of the \nHungarian minorities beyond the border, Foreign Minister Geza \nJeszenszky said. He added that they had always laid equal \nemphasis on the establishment of good neighborly relations and \nthe assertion of rights of the Hungarian minorities living in \nthe neighboring countries. Neither of these two issues should \nbe given preference, said the foreign minister. According to \nhim, there are not any problems in those countries where the \nHungarian minority is not significant or where minority rights \nare granted. It is true, however, that there are countries \nwhere the situation of the Hungarian minority is changing \nunfavorably. Thus, for example, our reservations concerning \nSlovakia's admission to the Council of Europe unfortunately seem \nto be vindicated, the foreign minister said, adding that the \nsituation of the Hungarian minority there depended on the Slovak \ndomestic policy. Geza Jeszenszky, however, did not wish to \nexpress his opinion on it. He said: the ideal solution would be \nif minority rights were regulated legally in every country, just \nlike us. Until then, the handling of these issues in a way \nwhich satisfies both sides, should be helped by the \nestablishment of mixed committees. \n\n"],
        "_version_":1552800677954060288},
      {
        "header":["\n\nDaily Report \n\n\n"],
        "id":" FBIS4-32200 ",
        "text":["\nBFN \n\n  [Text] Viorel Hrebenciuc, general secretary of the Romanian \nGovernment and coordinator of the Council for National \nMinorities, received Alexandr Vondra, first deputy foreign \nminister of the Czech Republic, at Victoria Palace. \n  The guest noted that in the opinion of his government, Czech \nminorities are forging a cultural heritage that make an \nessential contribution to Czech civilization. He also presented \nthe guidelines of an extensive project aimed at supporting Czech \nminorities throughout the world, to cultivate and preserve their \nnational identity. This project, the financing of which is in \nthe process of being approved, among other things stipulates \nsupport of Czech minorities through education and culture, \nthrough the exchange of teaching staff, as well as support in \nthe development of infrastructure in areas inhabited by the \nCzech minority. \n  In order to expand this project to the Czech minority living \nin Romania, Alexandr Vondra asked for the support of the \nRomanian Government and the Council for Ethnic Minorities. \n  Viorel Hrebenciuc stressed the good relations between the \ngovernment of Romania and the leadership of the Union of Czechs \nand Slovaks in Romania, as well as the important role played by \nthis organization in the activity of the Council for National \nMinorities; declared the complete openness of the Romanian \ngovernment for the project to support the Czech minority in our \ncountry, stressing the need for the Union of Czechs and Slovaks \nin Romania to get involved in all stages of examination and \nimplementation of this project. In this way, according to the \nopinion expressed by the Romanian side, closer cooperation \nbetween Romania and Czechia and between the government of the \ntwo countries will be established, cooperation that might expand \nto actions regarding ethnic minorities within the framework \noffered by the Central European Initiative, the Balladur Plan, \nthe Council of Europe, and the Conference on Security and \nCooperation in Europe. So reads a press release that we have \nreceived from the government spokesman. \n\n"],
        "_version_":1552800601489801217},
      {
        "header":["\n\nDocument Type:Daily Report \n\n\n"],
        "id":" FBIS3-30706 ",
        "text":["\nLanguage: \nArticle Type:BFN \n\n  [Text] Bratislava Feb 3 (CTK) -- The most recent talks \nwithin the Council of Europe [CE] Parliamentary Assembly \nrevealed a general member distaste for granting national \nminorities more rights than current documents already give them, \na Foreign Ministry press spokeswoman, Daniela Rozgonova, said \nWednesday [3 February]. \n  The first round of expert talks on minorities took place in \nStrasbourg on January 24-28. In accordance with the autumn 1993 \nCE summit in Vienna, these talks are supposed to produce by the \nend of this year a series of international documents codifying \nminority rights. \n  \"The most active delegation was the Hungarian, whose \nposition \ncould be described as extreme,\" Rozgonova said, adding that \nSlovakia had pointed out it preferred to stress individual \nrights for members of minorities, since protecting individual \nrights represented the greatest guarantee of a democracy's \nfunctioning. \n\n"],
        "_version_":1552800676859346944},
      {
        "header":["\n\nDaily Report \n\n\n"],
        "id":" FBIS4-66152 ",
        "text":["\nBFN \n\n\n  [Text] About one and a half hours ago at the UNESCO \nheadquarters in Paris, Romanian Foreign Affairs Minister Teodor \nMelescanu presented, with the precision and elegance of reason, \nRomania's position regarding the European stability pact. \n  Talking in the plenum of the inaugural conference in Paris, \nthe Romanian foreign affairs minister remarked that the \nconference has the historic task of preparing the future by \nerecting the democratic stability of the continent. \n  Bucharest is convinced that this first foreign policy and \ncollective security exercise performed by the European Union \nwill contribute to the accomplishment of further prerequisites \nto perpetuate European integration by deepening and expanding \nit. The example set by those who laid the foundation of the \nEuropean Community by reaching reconciliation encourages and \nstimulates the political will of the Central European countries \nin the sense of turning their good neighborliness into an \nirreversible framework of their mutual relations. \n  Ethnic diversity, the head of Romanian diplomacy also said, \nis a natural circumstance of our continent. Romania shares the \nidea that ethnic minorities are part of the assets of the \ncountries. The protection of ethnic minorities can be ensured \nin a better way if the persons belonging to those minorities \noffer their loyalty to the states. Referring to certain remarks \nmade yesterday in the hall of the Paris conference, Mr. \nMelescanu added that the loyalty of persons belonging to ethnic \nminorities to the states they are citizens of is, per se, an \nample source of stability. \n  Romania also shares the almost unanimously accepted view of \nthe participants in the conference in consecrating the \nintergovernmental character of this preventive diplomacy \nexercise, thus guaranteeing its viability and the success of the \njoint efforts. \n  Consultations at national level with the legitimate \nrepresentatives of ethnic minorities cannot be anything but \nbeneficial for each of the governments and each of the ethnic \nminorities. Otherwise, putting such dialogues beyond the \nboundaries of law would not only violate international rights, \nbut would also act as an obstacle hindering good neighborliness. \nLuckily, the Romanian foreign affairs minister emphasized, the \nunanimous decision of the states attending the conference to \nplace the pact on the basis of the principles and norms \nconsecrated by the pertinent documents of the United Nations, \nthe Conference on Security and Cooperation in Europe, and the \nCouncil of Europe, is able to prevent such strange and singular \npretenses [sentence as heard]. \n  Mr. Melescanu reasserted the firm will of the Romanian \nGovernment to contribute to the success of this initiative by \ncontinuing and finalizing the negotiations intended to conclude \nbilateral treaties with all neighboring countries, including \nHungary. Romania also expresses its readiness to include in the \nstability pact the treaties already concluded by Romania with \nother states associated to the European Union as our country's \nspecific contribution to the pact. Bucharest also offers to \nhost a regional roundtable conference dedicated to ethnic \nminority issues, as well as a regional roundtable conference \ndedicated to issues related to the amelioration of the \ninfrastructures in transportation and communications. \n  After noting that the document of the current conference is \nthe result of long and laborious negotiations, the Romanian \nminister of foreign affairs stated that the delegation of our \ncountry is ready to accept its text. \n  The success of the initiative directly depends on the \nwisdom, \nmoderation, and the respect of each country for the constructive \nspirit of the project that will begin today after the conclusion \nof the conference. The Romanians, stated Mr. Melescanu, believe \nthat the time has come when the prejudices, cliches, and \nexaggeratedly emotional perceptions in the relations between \nneighboring countries that are united by a joint fate should be \ndone away with. \n\n"],
        "_version_":1552800568469094400},
      {
        "header":["\n\nDaily Report \n\n\n"],
        "id":" FBIS4-64811 ",
        "text":["\nBFN \n\n  [Text] Albania is being called upon to prove that it \nrespects the principles of international law regarding \nminorities, stressed the government spokesman Evangelos \nVenizelos today. Commenting on remarks by Albanian President \nSali Berisha, according to which the Greek minority in Albania \nenjoys better conditions than other minorities in the Balkans, \nthe government spokesman noted that Albania's constitutional \nstatus is vague, particularly on issues of education and \nreligious rights for minorities. Declarations are not enough, \nVenizelos stressed, and continued: There is a need for the \nappropriate legislative, administrative and police practices, \nand the latest arrests of Greek-Albanians do not offer \nguarantees. The spokesman added that during the meeting in \nZurich between Greek Foreign Minister Karolos Papoulias and his \nAlbanian counterpart Alfred Serreqi, the Greek foreign minister \nraised the issue of respect for human rights and within this \nframework, he mentioned the continued detention of the Albanian \nSocialist Party leader Fatos Nano. \n  Venizelos expressed the hope that New Democracy Chairman \nMiltiadhis Evert, who will visit the North Epirus area on \nSaturday and Sunday, will promote the government positions on \nthese issues by fully understanding his responsibility in \nhandling similar issues. Evert's visit is for the purpose of \nreceiving a direct and on-the-spot briefing regarding the \nproblems faced by the Greeks in Gjirokaster, Sarande, and \nHimare. According to a New Democracy statement, Evert will only \nask to visit Tirana if the Greeks arrested recently in Albania \nare released. \n\n"],
        "_version_":1552800567390109697},
      {
        "header":["\n\nDocument Type:Daily Report \n\n\n"],
        "id":" FBIS3-8308 ",
        "text":["\nLanguage: \nArticle Type:BFN \n\n  [Excerpts] Foreign ministers of the Central European \nInitiative [CEI] member states ended their two-day meeting in \nthe Italian city of Trieste today. Here is our special \ncorrespondent Klara Stejskalova with a summary of what happened \nat the conference. \n  [Stejskalova] [passage omitted] Czech Foreign Minister Josef \nZieleniec emphasized that the Czech Republic is interested in \ndeepening cooperation in the area of migration and in \ncontributing to the shaping of pan-European migration policy. \n[passage omitted] \n  More controversial was, as usual, the question of ethnic \nminorities, which was brought to a head mainly by the Hungarian \nside. In this connection, Slovak representative Jozef Prokes \nemphasized that the Council of Europe session in Vienna did not \nreach any agreement on ethnic minorities. He reminded of the \nabsence of a comparative study of the position of Central \nEuropean minorities, something that is needed for an overall \nsolution to this problem. At the same time, he firmly refused \nto accept that this problem is specific to our region. \n  Josef Zieleniec stated his belief that the minority issue -- \nand other political problems -- should be dealt with by \nappropriate bodies, such as the Council of Europe. The CEI \nshould rather concentrate on concrete economic cooperation. \n[passage omitted] \n\n"],
        "_version_":1552800688992419843}]
    }
  },
  "topic407" : {
    "query" : "poaching, wildlife preserves",
    "response":{"numFound":2234,"start":0,"docs":[
      {
        "id":"FT941-15416",
        "text":["\nCorruption and venal personality power politics in Kenya yesterday claimed\nMr Richard Leakey, the international face of wildlife conservation and\nanti-poaching efforts in East Africa.\nIf Mr Leakey's resignation is accepted by President Daniel Arap Moi it will\nraise severe doubts among international donors. They have pledged up to\nDollars 300m and see Mr Leakey as personally responsible for successes over\nthe past five years to stamp out poaching and improve efficiency and\nprofitability of wildlife - the base of Kenya's tourism industry.\nMr Leakey, whose crusade led to a worldwide ban on the ivory trade,\nannounced his resignation from the Kenya Wildlife Service after a two week\nsmear campaign alleging racism, arrogance and irregular management\ndecisions. The government has set up a probe into Mr Leakey and the KWS\nService but refused to make public the terms of reference.\nPresident Moi, who appointed Mr Leakey five years ago at the height of a\ngrave elephant poaching and corruption crisis has remained silent. In the\npast Mr Moi has often quietly backed smear campaigns against ministers and\nofficials before sacking them.\nAt the heart of the row is the issue of land allocation in wildlife areas\nmade by Mr Leakey.\nMr Leakey, warned that his resignation would have 'far reaching\nconsequences', and said he had resisted attempts at what he called 'land\ngrabbing' by politicians. He gave four specific examples including an\nattempt by 'certain political figures' to have 10,000 acres carved out of\nthe Tsavo National Park.\n'Has my insistence that the wildlife protected areas be protected from some\ngreedy people been the reason for this charge (of arrogance)? I suspect so,'\nMr Leakey said. 'There are numerous examples where the national interest\nwould have been compromised had I given in.'\nClose associates and friends of Mr Leakey admit that he is abrasive and can\nbe arrogant. He has built up an independent and powerful fiefdom at KWS and\nbruised many political egos and created jealousies. Backed by the president\nand embraced as the darling of international conservation groups, Mr Leakey\nfelt he was untouchable and often acted without too much consultation.\nBut many say he almost single-handedly restored international credibility to\nthe Kenyan wildlife department which was tarnished throughout the 1980s with\ncorruption, nepotism, political interference, inefficiency and allegations\nthat leading Kenyan families were involved with poaching of ivory and rhino\nhorn.\n"],
        "_version_":1552800951880908802},
      {
        "id":"FT941-5453",
        "text":["\nLaw enforcement officers from nine African countries are meeting in Nairobi\nthis week to create a regional task force to fight international crime\nsyndicates dealing in ivory, rhino horn, diamonds, arms and drugs.\n'We need a highly mobile team of officers with the authority to operate\nacross borders to penetrate. . . increasingly sophisticated smuggling\nnetworks,' says Lt Col Pieter Lategan of the South African police force's\nEndangered Species Protection Unit.\n'With an African task force, we could place wildlife traffickers under\nsurveillance as they move across borders, so that entire networks, and not\njust individuals, could be apprehended,' he said.\nTrafficking in wildlife is on the rise, and has become linked to illegal\ntrade in weapons and drugs across southern and eastern Africa. Mr Lategan's\nunit impounded 2,200 tusks last year - hacked into 22,000 cubes to\nfacilitate smuggling - compared with 130 tusks in 1992.\nKenya seized more than 1,000 kg of ivory in 1993 in a case involving five\nKoreans and one Ethiopian smuggler. Officials from Kenya's Wildlife Service,\nwho have won plaudits worldwide for their anti-poaching efforts, say they\nneed freedom to cross borders when pursuing poachers and smugglers. They\nwould also welcome extradition treaties to trap ring leaders of\ninternational networks.\nZambia arrested 1,500 poachers in 1993 and seized more than 2,000 automatic\nweapons. Uganda is concerned with the growing trade in chimpanzees and rare\nbirds. Swaziland says it has lost 60 per cent of its white rhino population\nsince poachers invaded the landlocked kingdom in 1988.\n'Hardened criminals are what we are often up against,' says a Swazi police\nofficer. 'They deal not only in poaching, but in gun-running, drugs, grand\nlarceny and murder.'\nMozambique, which is emerging from a 17-year civil war, has become a\nfree-for-all for poaching gangs, including foreign armed forces who\nregularly invade Mozambique from neighbouring countries. According to the\nlaw enforcement officers at the Nairobi conference, it is known that\nZambians and Malawians hunt elephants in Tete province, while Tanzanians and\nSomalis operate along the Rovuma river in northern Mozambique.\nOfficers believe an African Task Force would give them more power to address\ncorruption within their own customs, police and armed forces.\nThe delegates, from Kenya, Lesotho, Malawi, Mozambique, South Africa,\nSwaziland, Uganda, Tanzania and Zambia hope the anti-smuggling task force\nwill be operational in 12 months.\n"],
        "_version_":1552800937372811264},
      {
        "header":["\n\nDocument Type:JPRS \nDocument Title:Environmental Issues \n\n\n\n"],
        "id":" FBIS3-60235 ",
        "text":["\nLanguage: \nArticle Type:BFN \n\n  [Text] Urumqi, December 28 (XINHUA) -- Northwest China's \nXinjiang Uygur Autonomous Region has made unremitting efforts to \nprovide the local wildlife with a better environment in recent \nyears. \n  So far, the region has built 20, and plans another ten, \nnature reserves, eight of which are nature reserves of wild \nanimals. \n  Covering an area of 1.6 million sq km, Xinjiang has 773 \nspecies of vertebrate animals. Some of them are found in \nXinjiang only; they include the Tarim hare and Tarim red deer. \nSome others such as wild horses, wild donkeys and wild camels \nare considered endangered species worldwide. \n  While firmly following state laws and regulations on the \nprotection of wildlife, the region has promulgated a series of \nlocal regulations on protection of wildlife in its vast \nterritory. \n  At the same time, the region's governments at all levels \nhave \npaid attention to severely punishing people engaging in illegal \nactivities such as poaching and trading in protected animals. \n  Besides government departments and personnel specializing in \nprotection of wildlife, many mass organizations have been \nestablished in recent years to help protect wild animals. \n  As a result of these comprehensive measures, the living \nenvironment for wild animals in the region has been markedly \nimproved and the number of wild animals has increased \nsubstantially. For example, the number of wild horses introduced \nfrom Germany, the United States and Britain has grown from 13 in \n1985 to 49. \n\n"],
        "_version_":1552800633205030914},
      {
        "id":"FT933-9176",
        "text":["\nWhen the elephant was voted the world's most popular animal, you can bet the\npeople of Hurungwe district in northern Zimbabwe were not consulted.\nEvery year, they live in fear of elephants trampling through fields of maize\nthat took months to prepare and tend. One night's feast for an elephant can\nwipe out an entire year's harvest. Homes might be wrecked if situated in the\nanimals' paths. Children and adults are injured and sometimes killed.\nWhy, then, are villagers thinking of constructing water dams and putting\ndown salt to encourage elephants into their area? Why are they discouraging\nillegal settlers so that their land might be used instead by elephants? The\nanswer lies in a novel programme which is giving economic value to elephants\nand other wildlife on Zimbabwe's communal lands.\nUnder Campfire (Communal Areas Management Programme for Indigenous\nResources), rural communities are managing to make money from animals which\nuntil recently were poached as pests. The programme is simultaneously\nencouraging economic development and a conservation ethos in rural areas.\nCampfire works by linking cash with conservation. Until recently, rural\ncommunities were not allowed to make any use of wildlife on their lands  -\npoaching was common, either for food or to stop animals destroying crops and\nendangering people. Now, districts accepted into the programme are allowed\nto shoot a certain number of animals every year, for sale either as meat or\nsafari trophies.\nThe programme - run by the government and conservation organisations - gives\nrural communities a choice. They can shoot an animal that is damaging crops\nand sell its meat, earning, for example, about Pounds 1,600 for an elephant;\nor they can save the quota for safari hunting, where an elephant will earn\nthe community Pounds 4,000-Pounds 6,000. A typical annual wildlife quota per\ndistrict might include a variety of wildlife, such as seven elephants, 20\nbuffalo and 20 baboons.\nCampfire is creating an additional source of income for subsistence farmers.\nLast year, eight districts earned about Pounds 350,000 from safari hunting -\nmostly from Americans keen to collect an elephant trophy.\nParticipating communities decide whether to invest the money in community\nprojects - such as schools, dams or grinding mills - or divide it among\nhouseholds for personal use. In one ward, households earned Pounds 60 each\nfrom Campfire last year - a welcome addition to the average annual income of\nabout Pounds 80.\nThe programme is also encouraging the spread of business skills. Local\nCampfire committees are going into partnership with well-established safari\noperators to market their quotas; community investments are creating\nsmall-scale industries such as the grinding mills and bee-keeping; other\ntourist ventures are under way, such as hiking and photographic safaris.\nCash and conservation are an attractive couple, says Lovemore Katena, a ward\ncouncillor in Hurungwe district. 'The best thing about Campfire is that we\nare learning to manage our resources and we benefit from them.'\nThe conservation benefits are becoming clear. Villagers involved are\nactively discouraging wildlife poaching, confiscating snares, reporting\npoaching incidents and guarding against bush fires which are used to flush\nout animals but also destroy vegetation. They discourage illegal settlement\nand illegal gold panning, which contribute to the destruction of the land,\nrivers and vegetation.\nOnly firm evidence of the link between conservation and economic development\ncan maintain people's commitment to Campfire, says Cherry Bird, wildlife\nco-ordinator for Hurungwe district. 'Everybody has to feel they are\nbenefiting tangibly from this programme so they'll be involved in management\ndecisions. It sounds idealistic, but the alternative is to have no\nwildlife.'\nThe nomadic nature of wildlife is proving a problem. The community where an\nanimal is shot is the community that earns money - although several areas\nmay have suffered crop damage en route. There is, therefore, no guarantee of\na stable income from year to year. Some villagers argue they are being\nbribed to put up with wildlife. Others want their quotas increased so they\ncan shoot more animals and earn more.\nNevertheless, districts are queueing up to be accepted into Campfire. By the\nend of the year, 24 will have Campfire status and by 2000 more than half the\ncountry is expected to be devoted to wildlife conservation under the\nprogramme.\nElephants - which are not an endangered species in Zimbabwe - remain the\nbiggest earners under Campfire because of their status symbol to safari\nhunters. The hope is that other community businesses will become equally\nimportant to the local economies over time, says Ivan Bond, Campfire\nresearch fellow at the World Wide Fund for Nature.\n'In the long-term, Campfire principles will have to be applied holistically\nto the whole range of natural resources. If the institutions exist for the\nmanagement of one common property resource, it should not be too difficult\nto extend these to other resources.'\n"],
        "_version_":1552800900919066624},
      {
        "id":"FT941-15415",
        "text":["\nMr Richard Leakey, the renowned conservationist, has resigned his post with\nthe Kenya Wildlife Service after a virulent two-week campaign against him.\nMinisters and politicians have accused Mr Leakey, whose crusade led to a\nmuch acclaimed worldwide ban on the ivory trade in 1989, of racism,\narrogance and irregular management decisions.\nIf Mr Leakey's resignation is accepted by President Daniel arap Moi, it will\nraise severe concerns among international donors who have pledged up to\nDollars 300m for conservation to Kenya. They see Mr Leakey as personally\nresponsible for successes over the past five years in stamping out poaching\nand improving efficiency and profitability of wildlife - the base of Kenya's\ntourism industry.\nThe government has set up an inquiry into Mr Leakey and the KWS but refused\nto make public the terms of reference.\nIn the past, Mr Moi has often quietly backed smear campaigns against\nministers and officials before sacking them.\nAt the heart of the row is the issue of land allocation in wildlife areas.\nMr Leakey warned that his resignation would have 'far reaching consequences'\nand said he had resisted attempts at what he called 'land grabbing' by\npoliticians. He gave four specific examples, including an attempt by\n'certain political figures' to have 10,000 acres carved out of the Tsavo\nNational Park.\n'Has my insistence that the wildlife-protected areas be protected from some\ngreedy people been the reason for this charge (of arrogance)? I suspect so,'\nMr Leakey said yesterday.\nClose associates and friends of Mr Leakey admit that he is abrasive and can\nbe arrogant. He has built up an independent and powerful fiefdom at KWS and\nbruised many political egos and created jealousies.\n"],
        "_version_":1552800951880908801},
      {
        "id":"FT941-1511",
        "text":["\nMr Richard Leakey, East Africa's foremost conservationist, yesterday\nabandoned his struggle to protect the Kenya Wildlife Service from political\npredators by submitting his second letter of resignation to President Daniel\narap Moi. He said he would not run the KWS under new directives which could\ndestroy years of pioneering work.\n'The KWS dream of a self-financing, efficient, publicly owned but\nindependent conservation authority does not seem viable in this context,' Mr\nLeakey said. He mentioned only two of the new directives: anti-poaching\nunits, run successfully for the past four years by the KWS, would be placed\nunder the authority of the Commissioner of Police; and that most KWS\nresources, including millions of dollars of donor funds, should be spent\noutside its wildlife sanctuaries.\nMr Leakey returned to head the KWS, at the president's request, less than\ntwo weeks ago. He had offered his resignation in January, after charges of\nracism and corruption were directed at him by cabinet ministers and\npoliticians.\nPresident Moi attempted to defuse the international uproar over his\nresignation by appointing a committee to examine the workings of the KWS.\nThe committee's recommendations have not been made public, but they appeared\ndesigned to curtail Mr Leakey's independence, and to siphon off the millions\nof dollars of international aid he has raised to fund conservation projects\nin Kenya.\n"],
        "_version_":1552800954431045638},
      {
        "header":["\n\nDocument Type:JPRS \nDocument Title:Environmental Issues \n\n\n\n"],
        "id":" FBIS3-41533 ",
        "text":["\nLanguage: \nArticle Type:BFN \n\n\n  [Text] The Conservation industry has lost over \nE[Emalangeni]3.5 million worth of game from rhino-poaching alone \nin the last five years. This means about 70 percent of \nSwaziland's rhino have been wiped out by poachers since 1988 \nwhen the commercial rhino horn poaching started. \n  Nature Conservationist, Mr. Ted Reilly, said this figure \nrepresents a direct cash value of animals poached. ``However, a \nmore realistic value of the loss of Swaziland probably exceeds \nthat figure by more than 10 times,'' he said. \n  ``The value of these losses is only just beginning to be \nfelt. Those poached animals cannot be simply replaced, there is \nno insurance policy that will pay out the country for its loss \nof breeding stock.'' \n  ``Rhino, in particular, are slow breeding animals. Many of \nthe slaughtered rhinos have been mature and productive animals. \nMany were heavily pregnant when poached. How do you put the \nvalue on the years it will take to get back to the point that we \nwere at in restoring Swaziland's decimated wildlife heritage?'' \n  Mr. Reilly says because of the poaching pandemic, jobs have \nbeen lost, foreign exchange, tourism dwindled and investment in \nthe industry discouraged. ``How can one invest if there is no \nguarantee that the money he spends in re-introducing species to \nhis farm doesn't all disappear in front of his eyes as poachers \ndecimate his breeding stock?'' \n  Asked what happens to trophies (target parts of animals) \nthat \nhave been confiscated from poachers, Mr. Reilly said in most \ncases the exhibits have mysteriously disappeared. ``There are \nalso cases where one sees in the newspaper about elephant tusks \nand rhino horns being destroyed in a fire.'' \n  ``These are some of the factors giving rise to Section 24(5) \nin the new law which stipulates that no more than trotters or \nthe head of the animal shall be needed as an exhibit.'' ``We \nhave even had refusal of acceptance of a prisoner at Simunye \nbecause the whole animal didn't accompany the accused. The \nofficer insisted that we bring the whole animal.'' \n  Mr. Reilly also blamed the courts for not being that \n``supportive'' in curbing the poaching crime. ``The draconian \nmeasures we have had to introduce in the new law are a result of \ncourts failing to properly and responsibly apply the law.'' \n  ``The Game Amendment Act would, in large part, have been \nunnecessary had the courts been supportive. The Non-Bailable \nOffenses Order has similar origins.'' \n  To this, Mr. Reilly referred a case reported in THE TIMES \nearly this year whereby the accused, Salatiyala Kunene of \nKhuphuka area, had his case withdrawn because the exhibits had \nbeen destroyed. \n  Mr. Reilly reported a long list of animal species already on \nthe verge of extinction, poaching being one of the contributing \nfactors. \n\n"],
        "_version_":1552800647040991233},
      {
        "id":"FT921-6003",
        "text":["\nTHE PLIGHT of the African elephant arouses high passions. Hunted down and\nstripped of tusks and hide by poachers, their numbers in Africa slumped from\n1.2m to 600,000 in a decade until, in 1989, CITES - the Convention on\nInternational Trade in Endangered Species - banned the trade in ivory.\nOn Monday, when the CITES' 12-day triennial conference begins in Kyoto,\nJapan, the wound will be re-opened. Zimbabwe, South Africa, Botswana,\nNamibia and Malawi want the buying and selling of ivory and other elephant\nproducts to resume in order to generate funds for protection and\npreservation.\nThey claim that effective management of native elephant herds has meant that\npopulations are flourishing, and Zimbabwe even says culling may be needed to\nreduce numbers. But conservationists fear that ending the ban will mean a\nnew wave of poaching, which could have drastic effects on nations to the\nnorth. The debate will be stormy.\nHere, IAIN DOUGLAS-HAMILTON, who has been battling for 25 years to protect\nthe world's largest land animal, explains the background to the meeting -\nand the problems that continue to make a lasting solution so difficult.\nIN SEPTEMBER 1991, two years after the CITES' ivory ban, a multi-national\nteam in nine light aircraft criss-crossed Kenya's Tsavo national park - a\nwilderness of red earth, thorn bush and blue, faraway hills - looking for\nelephants. Over five days, scanning every corner of the 43,000 sq km park,\n6,800 live animals were spotted - up 9 per cent since the last count. Even\nmore important was the near-total absence of fresh carcasses.\nTsavo had been ravaged by poachers and ivory traders. But now, morale was\nsoaring. Corrupt park staff had gone and the new warden was a true\nprofessional with properly-equipped forces which had confronted and defeated\nthe intruders. There were still plenty of armed men pouring into Kenya as\nthe civil war in Somalia raged to the north, but the trading ban meant that\nivory was devalued and not worth the risks any more.\nIt was a far different story only a few years earlier. After a brief golden\nage for elephants in the 1950s and '60s, following the post-Second World War\nestablishment of national parks, a wave of poaching had spread from east\nAfrica, driven by the high ivory price and the demand for trinkets and name\nstamps in far-off Japan, Europe and the United States. The poaching extended\nfar west through the equatorial forests and south to the Zambezi river.\nFlying over Uganda in 1980, after the fall of dictator Idi Amin, we found a\nholocaust. Elephants lay littered on the trails like crumpled leaves, the\nwounded dragging their legs as they struggled to keep up with the terrified\nherds. In the Murchison Falls national park, there were only 2,300 survivors\nfrom 14,000 elephants in the 1960s.\nThere were gun battles in the parks as the authorities sought to deal with\nthe aggressive, heavily-armed poachers. Rangers were killed by Sudanese army\npoachers in Kidepo until a determined campaign drove them out. Bodies of\ndead poachers were left to be eaten by hyenas.\nThe problems of Uganda were mirrored time and again elsewhere. Collecting\ninformation, with the help of scientific colleagues across Africa, we found\nevidence of elephants speared, trapped, poisoned, burned or shot down with\nautomatic fire. At times, we came close to despair at the failure of one\ninitiative after another to stop the slaughter.\nThe only exceptions to the general trend were in southern Africa, south of\nthe Zambezi. But we feared the poaching inevitably would spread south, given\nthe high world demand for ivory.\nFinally, in 1989, the sheer weight of evidence of abuse convinced African\ngovernments and Western publics to back the ivory trade ban. And, in\ngeneral, there has been an improvement.\nContrary to predictions, it has proved policeable. In most countries, the\nivory price has dropped followed by a rapid decrease in poaching. This is\nespecially true in the parks and reserves of east Africa, once affected most\nseriously. But at next week's CITES' conference in Kyoto, five southern\nAfrican nations want to re-open trading. It is a move opposed strongly by\nmost African countries to the north, which believe it would destroy their\nelephants.\nThe traders sitting on stock-piles of ivory poached before the ban would\nbenefit the most, as any legal trade would send up the price. It would also\nbe impossible to prevent the mixing of legal and illegal stocks.\nA possible compromise would be for the southern African countries to agree\nnot to trade in ivory and to confine trade to meat and skins; but there are\nfears this would not be sufficiently binding. And yet, the southern African\ncountries, by giving up ivory sales over the past two years, have borne some\nof the cost of keeping elephants alive elsewhere in Africa. Their altruistic\naction has saved heavier costs in human and elephant lives, and money, that\nwould have been incurred by nations to the north.\nBut for northern countries - in particular, Kenya - keeping the ivory ban is\na matter of economic survival. There is no way it could cope with another\nsurge in poaching.\nDespite Kenya and Zimbabwe being at either end of the spectrum, they have\ncommon interests. Both believe the way forward will include an economic\nprogramme to make wildlife self-sustaining.\nZimbabwe, with its 'camp-fire' programme, has pioneered projects to bring\nmoney to local people from tourism, hunting and cropping exercises. Kenya\nhas made great strides in doubling its wildlife-based tourist revenues,\nalthough this is being damaged at present by bandit attacks on visitors to\ngame reserves.\nAt the heart of the problem is a difference in philosophy between the\nprotectionist and utilisation lobbies. The arguments have been bitter at\ntimes and represent a real clash of ideas.\nThe tragedy has been that conservationists on either side of the ivory\ndivide have fought each other rather than the illegal traders who were the\nreal enemy.\nOn the other hand, the matter of culling has now clouded the argument.\nAlthough it is a repellent business, no one has yet come up with a solution\nfor over-population of elephants - something that is becoming an issue as\nnumbers grow. And whether you like it or not, culling is a sovereign right\nof each country with elephants.\nBut a recent meeting of African elephant range states at the United Nations\nEnvironment Programme revealed a distinctly encouraging mood. There is a\ngrowing sense of collaboration between African states and a growing\nwillingness on the part of major donors, such as the US, the European\nCommunity and its individual member-states, to fund elephant programmes\nwithin their aid packages.\nA united African initiative to resolve the thorny question of the ivory\ntrade would be better than any Western-led solution, however\nwell-intentioned. An African compromise which keeps the ivory trade shut\nindefinitely would be worth the price of some nations selling skins from\nproperly-controlled culling operations. Ultimately, the fate of elephants\nlies in the hands of the African peoples themselves.\nIain Douglas-Hamilton is adviser to the European Commission on its elephant\nsurvey and conservation programme. He has also worked for the World Wildlife\nFund and for the New York Zoological Society. Together with his wife, Oira,\nhe has written the book Battle for the Elephants (Doubleday, Pounds 17.99).\n"],
        "_version_":1552800780596019201},
      {
        "id":" FR941104-1-00055 ",
        "text":["\n \n\n\n\nIn addition, the U.S. Fish and Wildlife Service funded a visit in the Spring of 1994 to Moscow and Kalmykia by Dr. James\nTeer, Welder Wildlife Foundation, Sinton, Texas, and Dr. Fred Lindzey, Wyoming Cooperative Fish and Wildlife Research\nUnit, University of Wyoming, Laramie, Wyoming, to report on the status of the saiga. Teer and Lindzey opined that the\nKalmykian saiga population can no longer sustain itself when harvests for horns, meat, and hides are permitted for\nexport, but that it can sustain a small offtake from hunting. Even so, they were concerned about poaching and the ease\nof movement of saiga parts across borders. They also felt that the Kalmykian population might rebound due to the great\nfecundity of saiga, along with a reduction in livestock, habitat improvement, and the control of poaching, all factors\nthe Kalmykian authorities claim they are implementing. While realizing that an Appendix II listing would not prohibit\nexports, Teer and Lindzey suggested that the United States might delay proposing a CITES listing to allow time for\ncurrent management measures and the population status in Kalmykia to be evaluated, and to give Kazakhstan time to\nbecome a Party to CITES. \n\n As a result of comments and information received concerning the amount of poaching of saiga antelope and the illegal\ntrade in saiga horns, the use of saiga horns in combination with or as a substitute for rhinoceros horns in traditional\nmedicines in conjunction with intensified pressures to stop the trade in rhinoceros horn, and the evidence of considerable\ndeclines in populations of \n\n\n\nS. t. tatarica \n\n\n\nover the last two decades for various reasons, the Service has proposed that populations of \n\n\n\nS. t. tatarica\n\n\n\n be included in Appendix II of CITES. The numbers of \n\n\n\nS. t. mongolica\n\n\n\n are so low in the wild that the full protective potential of CITES seems warranted, therefore the Service has proposed\nthat the Mongolian population be included in Appendix I of CITES. \n\n2. Urial (\n\n\n\nOvis vignei\n\n\n\n). The Service requested information and comments to help clarify which populations of the urial should be included\nin Appendix I as a result of the 1973 listing of \n\n\n\nOvis vignei \n\n\n\nby India. Confusion regarding the intended inclusiveness of the original listing of 1973 arose as a result of (1) actions\nconsidered at COP2 in 1979; (2) range information presented in the CITES-adopted check list for mammals, Mammal Species\nof the World, 1982, edited by Honacki, Kinman, and Koeppl; and, (3) distribution and synonymy given in Mammal Species\nof the World, 2nd Edition, 1993, edited by Wilson and Reeder. The issue was whether the original listing implies a conservative\napplication of the name, thereby restricting the listing to only populations in the Ladakh region of Jammu and Kashmir,\nor there was a broader intent, as presented in Honacki, Kinman, and Koeppl, 1982? \n\n\n\n\n\nFive comments were received within the comment period on this problem. TRAFFIC USA passed on information from TRAFFIC\nIndia attesting to the endangered status of the urial sheep in India, and from TRAFFIC France indicating that urial\nhunting trips in central Asia are being organized by French companies. Dr. Steve Edwards, IUCN, supported the submission\nof a proposal to clarify which populations of \n\n\n\nO. vignei \n\n\n\nare to be included in Appendix I. \n\n\n\n\n\nThe three remaining comments were from Safari Club International, Dr. Richard Mitchell, and Mr. Ron Young of Expeditions\nby Ron. The first two commenters argued that the intent of the original listing was to include only the population in\nthe Ladakh region of Jammu and Kashmir, while the latter noted that, according to his observation, the Transcaspian\nurial, the Afghan urial, the Blandford urial, and the Punjab urial are all abundant in the wild. \n\nThe Government of Pakistan indicated that the shapu (\n\n\n\nO. orientalis vignei\n\n\n\n (\n\n\n\n= O. v. vignei\n\n\n\n)), the gad (\n\n\n\nO. o. blanfordi\n\n\n\n (\n\n\n\n= O. v. blanfordi\n\n\n\n)), and the Punjab urial (\n\n\n\nO. o. punjabiensis\n\n\n\n (\n\n\n\n= O. v. punjabiensis\n\n\n\n)) are in fair numbers in Pakistan and that there is no need to list them under CITES. \n\n\n\nAlso, Mr. Earl Baysinger, U.S. Fish and Wildlife Service, who attended the Convention's Plenipotentiary Meeting\nand COP2, provided a detailed account of the discussions that took place at that meeting of the Parties concerning\nthe proposal and ultimate listing of the urial, and claimed that the Parties intended to include only \n\n\n\nO. vignei vignei\n\n\n\n in Appendix I. \n\n\n\n\n\nThe Service is, therefore, proposing that only \n\n\n\nO. vignei vignei\n\n\n\n of the Ladakh region of Jammu and Kashmir be retained in Appendix I, and that all other populations of \n\n\n\nO. vignei\n\n\n\n be included in Appendix II for biological and similarity of appearance purposes. \n\n\n\n\n\n3. Box turtles (\n\n\n\nTerrapene \n\n\n\nspp.). Prior to COP8, the New York Zoological Society recommended listing box turtles in Appendix II. However, the\nService did not have sufficient information on trade in these species, and did not submit a proposal for consideration\nat COP8. Since then the Service has accumulated data in its Law Enforcement Management Information System (LEMIS)\non exports and imports of box turtles in an effort to obtain appropriate trade information. \n\nThe genus \n\n\n\nTerrapene\n\n\n\n includes the four species (\n\n\n\nT. carolina, T. coahuila, T. nelsoni, \n\n\n\nand \n\n\n\nT. ornata\n\n\n\n), with 11 subspecies recognized among them. \n\n\n\nTerrapene coahuila \n\n\n\nis currently listed in Appendix I of CITES. \n\n\n\nTerrapene nelsoni\n\n\n\n occurs in a small fragmented range on the west coast of Mexico, while \n\n\n\nT. ornata\n\n\n\n is found over a large area of the midwestern United States. \n\n\n\nTerrapene carolina \n\n\n\nhas the largest range, occurring from Canada to Mexico as far as Yucatan, and from the Atlantic coast west into approximately\nthe eastern edge of the prairie in the Midwest. \n\n\n\n\n\n"],
        "_version_":1552800763123597312},
      {
        "header":["\n\nJPRS \nEnvironmental Issues \n\n\n\n"],
        "id":" FBIS4-67534 ",
        "text":["\nCSO \n\n  [Text] The central government plans to crack down on \nrapidly increasing pollution and reinforce environment laws in a \nsweep of 10 provinces next month. \n  The probe is being organized by the Environmental Protection \nCommittees of the National People's Congress (NPC) and the State \nCouncil. \n  All violators will be punished and their actions released to \nthe media, said Wang Bingqian, vice-chairman of the NPC Standing \ncommittee. \n  Wang said some people still work against State laws and \nstipulations on environmental protection. \n  New industrial projects have been built without reporting to \nthe local environmental departments and some have caused large \namounts of pollution. \n  The poaching, killing and sale of endangered animals under \nnational protection is still rampant in some places. \n  And inspectors will be looking to get rid of small cement \nplants, paper mills, petrochemical works and smelting furnaces \nthat have been banned but are making a comeback. \n  The new effort will target 10 provinces and autonomous \nregions: Hebei, Jilin, Zhejiang, Fujian, Henan, Hunan, Sichuan, \nGuizhou, Inner Mongolia, and Guangxi. \n  The inspections will check on law enforcement, environmental \ncontrols and wildlife protection, in addition to the \nimplementation of STate regulations on forestry, water and soil \npreservation. \n  Song Jian, Director of the State council's Environment \nProtection Committee, called for changes in the law to include \ncriminal penalties as severe as those faced by smugglers and \ndrug traffickers. \n  Such penalties should include jail, he said. \n  Xie Zhenhua, director of the National Environmental \nProtection Agency (NEPA), reported the illegal poaching, killing \nand smuggling of protected wild animals had survived despite \nrepeated government sweeps. \n  Some hotels and restaurants still make a fortune out of \ndishes based on rare animals. \n  Xie said some regions have brought in foreign projects that \nfall short of Nepa requirements, while others have imported \nharmful waste. \n  Technologically poor equipment and a lack of \ncounter-pollution measures in many rural enterprises account for \nsevere pollution and ecological disturbance in a wide range of \nareas, he said. \n  City residents most often complain about pollution from \nwaste \nwater, waste gas and trash and noise. \n  Some areas have eagerly launched high energy and \npollution-prone projects at the expense of the environment as \nthey greedily pursue short-term economic benefits, the official \nsaid. \n  Air quality in only a few of the 500 major cities has \nreached \nthe State's first-grade standard, he added, and acid rain has \nspread from South China to some hinterland districts. \n\n"],
        "_version_":1552800551043858432}]
    }
  },
  "topic415" : {
    "query" : "drugs, Golden Triangle",
    "response":{"numFound":8318,"start":0,"docs":[
      {
        "header":["\n\nDocument Type:JPRS \nDocument Title:Narcotics \n\n\n\n"],
        "id":" FBIS3-60083 ",
        "text":["\nLanguage: \nArticle Type:CSO \n\n\nGolden Triangle Sign Drug Suppression Memorandum\"] \n  [Text] According to a report from the UN office for drug \ncontrol in Laos, on 26 October at the UN headquarters in New \nYork the United Nations, in order to control international \ndrugs, met with the LPDR, the PRC, Myanmar [Burma] and Thailand \nto sign a memorandum to tighten up cooperation in suppressing \ndrugs in the Golden Triangle. \n  Mr Alounkeo Sittikoun, the LPDR representative, together \nwith \nthe representatives of the PRC, Myanmar [Burma], the Kingdom of \nThailand and the director of the UN project to control \ninternational drugs met to sign this memorandum. The goal was to \nincrease cooperation in controlling the drugs in this area of \nthese countries and to assure the continuation of high-level \nconsultations between these four governments and the United \nNations in order to control international drugs with respect to \nthe production of illegal drugs in this area, trafficking and \nviolations. The memorandum also stated that the area of the \nGolden Triangle in Southeast Asia was an area of extensive drug \nproduction. For this reason the four countries, Laos, China, \nMyanmar and Thailand, reached an agreement with the UN office \nfor the control of international drugs to increase cooperation \nin correcting the problem of widespread drug production, \ntrafficking and use. The UN office for drug control is to \nprovide technical assistance and funds to the governments of \nthese four countries. \n\n"],
        "_version_":1552800633132679170},
      {
        "header":["\n\nDocument Type:JPRS \nDocument Title:Narcotics \n\n\n\n"],
        "id":" FBIS3-60025 ",
        "text":["\nLanguage: \nArticle Type:BFN \n\n\n  [Text] The Burmese Government has sent its ground and air \nforces to mop up the ethnic minority troops under the command of \nKhun Sa. Heavy clashes have been reported since December inside \nof Burma, opposite the Thai border at Chiang Mai and Mae Hong \nSon. \n  The sound of gunfire was not heard over the new year \nholiday. \nThe Burmese Government, however, has reportedly sent more troops \nto crush the international drug kingpin's army and cut off the \nhuge income he earns each year from his opium crops and the \nexport of heroin. \n  About 20 heroin refineries are believed to exist in that \npart \nof the Golden Triangle in Burma that is under the control of \nKhun Sa, who is said to command an army of over 6,000 troops. \nIf the Burmese junta cannot stop Khun Sa's expansion, the world \nfaces a bigger danger from drug addiction. \n  The world looks upon Thailand as a transit route for opium \nand heroin smuggled out of the Golden Triangle for distribution \nworldwide. Thailand has never been able to stop the flow of \ndrugs completely, no matter how tough its prevention and \nsuppression measures are. \n  The vice chairman of China's Narcotics Suppression \nCommission \nonce said that, only a few years after the country opened up in \n1976, it began to encounter several problems related to \nnarcotics--especially heroin--flowing out of the Golden Triangle \nand the Economic Quadrangle to its north. \n  China seized 900 kg of heroin in 1991, but in 1992 it seized \na total of 4,200 kg of heroin. Most of the arrests were made in \nYunnan. Heroin is therefore one of the most worrisome problems \nChina now faces. \n  It can be assumed that without effective measures by both \nThailand and China to stop production at its source--and halt \nthe flow of narcotics from the Golden Triangle and the Economic \nQuadrangle in Burma before they reach international \nmarkets--narcotic drugs will surely continue to flood world \nmarkets. \n  We cannot rely entirely on the capabilities of the Burmese \nsoldiers to suppress Khun Sa's army and provide the only hope \nfor preventing people around the world from becoming slaves to \ndrug addiction. It is the duty of Burma's neighbors--Thailand, \nLaos, and China--to cooperate closely in their efforts and \nseriously prevent and suppress the trafficking of all types of \nnarcotic drugs. \n\n"],
        "_version_":1552800633080250368},
      {
        "id":"FT921-3261",
        "text":["\nBURMA, Thailand and Laos - the three 'Golden Triangle' states - agreed at\nthe weekend to increase co-operation on action to fight drugs production and\ntrafficking.\nwhile Police General Pow Sarasin, the Thai Deputy Prime Minister who chaired\nthe meeting, said: 'It's history in itself, when the three countries\nconsulted one another on how to get rid of narcotics.'\n"],
        "_version_":1552800794304053251},
      {
        "header":["\n\nDocument Type:JPRS \nDocument Title:Narcotics \n\n\n\n"],
        "id":" FBIS3-21943 ",
        "text":["\nLanguage: \nArticle Type:BFN \n\n\n  [Text] A lengthy spell in the briny was not enough to wash \naway the mark of the world's most notorious opium lord from the \nbiggest heroin haul seized by Hong Kong police in two years. \nThe \"Double Uoglobe Brand\" label stamped on 96 blocks of \nhigh-grade heroin, weighing 67 kilograms and worth more than \n$50m, is the trademark of Khun Sa, the shadowy king of the \nGolden Triangle. Narcotics Bureau police used grappling hooks to \ndrag the drugs from the seabed south of Lamma Island on Friday, \nafter a tip-off led to a search of the area. \n  \"This was a very big seizure so it was not surprising that \nit \nwas Khun Sa's stuff,\" a police source said yesterday. \"He is \nthe number one man in the Golden Triangle and authorities have \nbeen after him for years. Khun Sa is believed to have a number \nof hideouts and factories on the Burmese side of the Thai \nborder. He flits in and out of the Golden Triangle but no one \nseems able to catch him.\" \n  Khun Sa, which means \"Prosperous Prince\" in Burma's Shan \ndialect, ships his heroin through Thailand and is known to use a \nroad built by the Thais to the remote border town of Homong, \nwhere he is believed to have a base complete with international \ntelephone dialling, satellite television and soldiers armed with \nthe latest in weapons. \n  Hong Kong police are still on the trail of the syndicate \nwhich dumped the drugs at sea -- a ploy used to minimise the \nrisk of the entire shipment being seized on reaching the \nterritory -- and have predicted a \"long-term\" investigation. \nThe heroin is believed to have drifted along the sea floor and \nout of reach of the traffickers. The wrapping had begun to \ndeteriorate, although the drugs were not damaged. \n  In another operation on Sunday night, police seized 13 \nkilograms of high-grade heroin, worth about $8m, in Ngau Tau \nKok. Acting on information from the Narcotics Bureau, officers \nof the Kowloon East regional special duties squad staged a raid \non a flat in Amoy Garden and arrested two men after finding the \nheroin and packaging equipment. The men were still being \nquestioned last night. \n\n"],
        "_version_":1552800659951058944},
      {
        "header":["\n\nDocument Type:Daily Report \n\n\n"],
        "id":" FBIS3-2893 ",
        "text":["\nLanguage: \nArticle Type:BFN \n\n\n  [Text] A lengthy spell in the briny was not enough to \nwash away the mark of the world's most notorious opium lord from \nthe biggest heroin haul seized by Hong Kong police in two years. \nThe \"Double Uoglobe Brand\" label stamped on 96 blocks of \nhigh-grade heroin, weighing 67 kilograms and worth more than \n$50m, is the trademark of Khun Sa, the shadowy king of the \nGolden Triangle. Narcotics Bureau police used grappling hooks to \ndrag the drugs from the seabed south of Lamma Island on Friday, \nafter a tip-off led to a search of the area. \n  \"This was a very big seizure so it was not surprising that \nit \nwas Khun Sa's stuff,\" a police source said yesterday. \"He is \nthe number one man in the Golden Triangle and authorities have \nbeen after him for years. Khun Sa is believed to have a number \nof hideouts and factories on the Burmese side of the Thai \nborder. He flits in and out of the Golden Triangle but no one \nseems able to catch him.\" \n  Khun Sa, which means \"Prosperous Prince\" in Burma's Shan \ndialect, ships his heroin through Thailand and is known to use a \nroad built by the Thais to the remote border town of Homong, \nwhere he is believed to have a base complete with international \ntelephone dialling, satellite television and soldiers armed with \nthe latest in weapons. \n  Hong Kong police are still on the trail of the syndicate \nwhich dumped the drugs at sea -- a ploy used to minimise the \nrisk of the entire shipment being seized on reaching the \nterritory -- and have predicted a \"long-term\" investigation. \nThe heroin is believed to have drifted along the sea floor and \nout of reach of the traffickers. The wrapping had begun to \ndeteriorate, although the drugs were not damaged. \n  In another operation on Sunday night, police seized 13 \nkilograms of high-grade heroin, worth about $8m, in Ngau Tau \nKok. Acting on information from the Narcotics Bureau, officers \nof the Kowloon East regional special duties squad staged a raid \non a flat in Amoy Garden and arrested two men after finding the \nheroin and packaging equipment. The men were still being \nquestioned last night. \n\n"],
        "_version_":1552800682003660802},
      {
        "header":["\n\nDaily Report \n\n\n"],
        "id":" FBIS4-25105 ",
        "text":["\nBFN \n\n  [Text] The government incinerated 144 kg of seized heroin \nin the antidrug campaign to mark antidrug day on Friday [3 \nJune]. The government also called on Mainland China to help \ncrack down on the island's worsening drug problem. Within 10 \nminutes, the heroin, estimated to be worth 6 billion new Taiwan \ndollars on the street, was consumed in the fire in the national \nincinerator outside of Taipei. \n  The drugs were roughly 10 percent of the (?stored) at the \nMinistry of Justice Investigation Bureau's headquarters in \nHsintien, Taipei County. Justice Minister Ma Ying-chiu said he \nbelieves if the mainland cooperates, it will be a great help. \nIt is apparent that all [word indistinct] drug come the \nmainland. He added: Even drugs from the Golden Triangle where \nthe borders of Thailand, Laos, and Burma meet, are smuggled by \nfishing boats from Mainland China. Drug smuggling addiction has \nsurged since Taiwan lifted the martial law in 1987. \n\n"],
        "_version_":1552800591705538563},
      {
        "header":["\n\nJPRS \nNarcotics \n\n\n\n"],
        "id":" FBIS4-45305 ",
        "text":["\nBFN \n\n  [Text] The government incinerated 144 kg of seized heroin \nin the antidrug campaign to mark antidrug day on Friday [3 \nJune]. The government also called on Mainland China to help \ncrack down on the island's worsening drug problem. Within 10 \nminutes, the heroin, estimated to be worth 6 billion new Taiwan \ndollars on the street, was consumed in the fire in the national \nincinerator outside of Taipei. \n  The drugs were roughly 10 percent of the [amount] stored at \nthe Ministry of Justice Investigation Bureau's headquarters in \nHsintien, Taipei County. Justice Minister Ma Ying-chiu said he \nbelieves if the mainland cooperates, it will be a great help. \nIt is apparent that all [word indistinct] drug come [from] the \nmainland. He added: Even drugs from the Golden Triangle where \nthe borders of Thailand, Laos, and Burma meet, are smuggled by \nfishing boats from Mainland China. Drug smuggling addiction has \nsurged since Taiwan lifted the martial law in 1987. \n\n"],
        "_version_":1552800579905912833},
      {
        "header":["\n\nJPRS \nNarcotics \n\n\n\n"],
        "id":" FBIS4-21166 ",
        "text":["\nat   Session \n\n\n\n\n\nBFN \n\n  [Text] Vienna, April 13 (XINHUA) -- China will support as \never international efforts in drug control, said a Chinese \ndelegate at the 37th session of the UN Commission on Narcotic \nDrugs opened here today. \n  ``The Chinese government will...devote serious attention to \nand intensify international cooperation in the field of \nnarcotics control...and take an active part in every specified \nactivity in the domain of international drug control and will \nmake its own contribution in this regard,'' said Chen Shiqiu, \nhead of the Chinese delegation. \n  In particular, China will ``spare no effort to support the \nGolden Triangle sub-regional drug control cooperative activities \nand projects,'' he added. \n  Chen, who is also the Chinese representative in the \nVienna-based UN and other international institutions, reported \nto the meeting on China's anti-drug achievements. \n  China has been placing special emphasis on the interdiction \neffort against transit drug smuggling in its southwestern border \nareas through comprehensive measures to strictly prohibit drug \ntrafficking, cultivation and abuse, and intensified drug law \nenforcement, he noted. \n  In 1993, the Chinese drug law enforcement agencies handled \n26,191 cases, apprehended 40,834 suspects and seized 3,354 \nkilograms of opium, 4,459 kilograms of heroin and 90 metric tons \nof essential chemicals and precursors destined for the Golden \nTriangle area for drug processing. \n  In addition, China had last year 50,000 persons/times [as \nreceived] treated in more than 200 drug detoxification centers \nand currently gives treatment to 15,000 drug addicts. \n  Chen said that the Chinese government has put all 22 \ncontrolled chemicals under the export licensing system as \nrequested by the 1988 UN convention designed to prevent \ndiversion of pharmaceutical drugs into illicit channels. \n  The conference of the UN Commission on Narcotic Drugs, which \nwill conclude on April 22, is expected to review the work of the \nUN International Drug Control Program and International \nNarcotics Control Board. \n  It will in particular review the progress made by individual \ncountries in implementing the drug control convention and a UN \nresolution on the issue approved by the 48th session of the UN \nGeneral Assembly last year. \n\n"],
        "_version_":1552800587932762113},
      {
        "header":["\n\nDaily Report \n\n\n"],
        "id":" FBIS4-2802 ",
        "text":["\nBFN \n\n  [Text] Vienna, April 13 (XINHUA) -- China will support as \never international efforts in drug control, said a Chinese \ndelegate at the 37th session of the UN Commission on Narcotic \nDrugs opened here today. \n  \"The Chinese government will...devote serious attention to \nand intensify international cooperation in the field of \nnarcotics control...and take an active part in every specified \nactivity in the domain of international drug control and will \nmake its own contribution in this regard,\" said Chen Shiqiu, \nhead of the Chinese delegation. \n  In particular, China will \"spare no effort to support the \nGolden Triangle sub-regional drug control cooperative activities \nand projects,\" he added. \n  Chen, who is also the Chinese representative in the \nVienna-based UN and other international institutions, reported \nto the meeting on China's anti-drug achievements. \n  China has been placing special emphasis on the interdiction \neffort against transit drug smuggling in its southwestern border \nareas through comprehensive measures to strictly prohibit drug \ntrafficking, cultivation and abuse, and intensified drug law \nenforcement, he noted. \n  In 1993, the Chinese drug law enforcement agencies handled \n26,191 cases, apprehended 40,834 suspects and seized 3,354 \nkilograms of opium, 4,459 kilograms of heroin and 90 metric tons \nof essential chemicals and precursors destined for the Golden \nTriangle area for drug processing. \n  In addition, China had last year 50,000 persons/times \ntreated \nin more than 200 drug detoxification centers and currently gives \ntreatment to 15,000 drug addicts. \n  Chen said that the Chinese government has put all 22 \ncontrolled chemicals under the export licensing system as \nrequested by the 1988 UN convention designed to prevent \ndiversion of pharmaceutical drugs into illicit channels. \n  The conference of the UN Commission on Narcotic Drugs, which \nwill conclude on April 22, is expected to review the work of the \nUN International Drug Control Program and International \nNarcotics Control Board. \n  It will in particular review the progress made by individual \ncountries in implementing the drug control convention and a UN \nresolution on the issue approved by the 48th session of the UN \nGeneral Assembly last year. \n\n"],
        "_version_":1552800605215391744},
      {
        "id":"FT922-7496",
        "text":["\nTHE SUPER-RICH, inhabiting a little-known golden triangle of rural England,\nare helping to alter the traditional image of the down-at-heel north.\nJust six months after opening an office in Harrogate, North Yorkshire,\n'accountants-to-the-rich' firm of Saffery Champness, is earning fees of\nPounds 1m a year, recruiting extra staff and taking on more office space.\nAnd this is at a time when accountants nationally have been cutting back and\naxing staff in the face of the recession.\nNorth Yorkshire's 'golden triangle', which straddles the A1 Great North Road\nbetween York, Wetherby and Harrogate, boasts more super-rich (minimum\nqualifications Pounds 20m of net worth) than any other part of the country\noutside Belgravia and Mayfair in London.\nThe triangle's wider claim to fame is that Marston Moor is in its middle. It\nwas here in 1644 that Cromwell's Ironsides defeated the dashing Prince\nRupert's cavalry, giving parliament control of the north.\nIn modern times, the rich have been waging a different kind of war against\nparliament, saving as much as they can of their wealth from the taxman.\nMr Keith Weston, a Saffery Champness partner who has totally forsaken London\nfor the north, now sees Yorkshire's golden triangle as far too limited.\nHe has drawn a new triangle, with Newcastle, Liverpool and Grimsby at the\ncorners. This takes in the rich pastures of Cheshire and the Derbyshire\nPeaks, as well as the rest of Yorkshire and Humberside.\n"],
        "_version_":1552800799302615040}]
    }
  }
}